{
	"info": {
		"_postman_id": "c29aea7a-8f79-4ac8-8e1a-f75cfbcc7dc1",
		"name": "Frozen_POST_Functionality",
		"schema": "https://schema.getpostman.com/json/collection/v2.1.0/collection.json"
	},
	"item": [
		{
			"name": "Posts User1",
			"item": [
				{
					"name": "Authenticate User1 public",
					"event": [
						{
							"listen": "test",
							"script": {
								"id": "ac82e540-5e2d-4bb2-91ce-317b8adbc248",
								"exec": [
									"pm.collectionVariables.set(\"SessionCookie\", pm.cookies.get(\"JSESSIONID\"));\r",
									"console.log(pm.cookies.get(\"JSESSIONID\"));\r",
									"\r",
									"pm.test(\"Status code is 200\", function () {\r",
									"    pm.response.to.have.status(200);\r",
									"});"
								],
								"type": "text/javascript"
							}
						}
					],
					"protocolProfileBehavior": {
						"disabledSystemHeaders": {}
					},
					"request": {
						"method": "POST",
						"header": [],
						"body": {
							"mode": "urlencoded",
							"urlencoded": [
								{
									"key": "username",
									"value": "{{publicUserName1FrozenAndStage5}}",
									"type": "text"
								},
								{
									"key": "password",
									"value": "{{publicUser1PasswordFrozen&Stage5}}",
									"type": "text"
								}
							]
						},
						"url": {
							"raw": "{{cookieStage5}}",
							"host": [
								"{{cookieStage5}}"
							]
						}
					},
					"response": []
				},
				{
					"name": "Get list of my posts",
					"event": [
						{
							"listen": "test",
							"script": {
								"id": "4e81d8df-18b9-4a6c-8538-6d44bb6ae91e",
								"exec": [
									"pm.test(\"Status code is 200\", function () {\r",
									"    pm.response.to.have.status(200);\r",
									"});\r",
									"\r",
									"var jsonData = pm.response.json();\r",
									"\r",
									"var body = JSON.parse(responseBody);\r",
									"var countMyPosts = body.length\r",
									"\r",
									"console.log(countMyPosts);\r",
									"pm.collectionVariables.set(\"countMyPosts\", countMyPosts);\r",
									"console.log(pm.collectionVariables.get(\"countMyPosts\"));"
								],
								"type": "text/javascript"
							}
						}
					],
					"request": {
						"method": "GET",
						"header": [],
						"url": {
							"raw": "{{baseUrl}}/posts/my?page=0&size=100",
							"host": [
								"{{baseUrl}}"
							],
							"path": [
								"posts",
								"my"
							],
							"query": [
								{
									"key": "page",
									"value": "0"
								},
								{
									"key": "size",
									"value": "100"
								}
							]
						}
					},
					"response": []
				},
				{
					"name": "Create new post",
					"event": [
						{
							"listen": "test",
							"script": {
								"id": "9bbaac5f-72ef-411f-8456-336d1ba81a1a",
								"exec": [
									"let jsonData = pm.response.json();\r",
									"\r",
									"pm.test(\"Post is created, status code is 200\", function () {\r",
									"    pm.response.to.have.status(200);\r",
									"});\r",
									"\r",
									"var postTitle = jsonData.title;\r",
									"pm.collectionVariables.set(\"postTitle\", postTitle);\r",
									"pm.test(\"Check if new post has correct title\", function () {\r",
									"    pm.expect(pm.collectionVariables.get(\"postTitle\")).to.eql(pm.collectionVariables.get(\"title\"));\r",
									"});\r",
									"\r",
									"var idPost = jsonData.id;\r",
									"pm.collectionVariables.set(\"idPost\", idPost);\r",
									"\r",
									"console.log(pm.collectionVariables.get(\"idPost\"));\r",
									"\r",
									"\r",
									""
								],
								"type": "text/javascript"
							}
						},
						{
							"listen": "prerequest",
							"script": {
								"id": "15d213f6-d66b-44f4-ac46-d62d947b953e",
								"exec": [
									"var\ttitle = \"Impossible is nothing\";\r",
									"pm.collectionVariables.set(\"title\", title);"
								],
								"type": "text/javascript"
							}
						}
					],
					"request": {
						"method": "POST",
						"header": [],
						"body": {
							"mode": "formdata",
							"formdata": [
								{
									"key": "post",
									"type": "file",
									"src": "/D:/QA/Final project/POSTMAN/post of user 1.json"
								},
								{
									"key": "picture",
									"type": "file",
									"src": [],
									"disabled": true
								}
							]
						},
						"url": {
							"raw": "{{baseUrl}}/posts",
							"host": [
								"{{baseUrl}}"
							],
							"path": [
								"posts"
							]
						}
					},
					"response": []
				},
				{
					"name": "Get updated list of my posts",
					"event": [
						{
							"listen": "test",
							"script": {
								"id": "6bf20c26-83d6-4413-b9f5-5b5bc7016d97",
								"exec": [
									"let jsonData = pm.response.json();\r",
									"\r",
									"let currentCountMyPosts = jsonData.length;\r",
									"pm.collectionVariables.set(\"currentCountMyPosts\", currentCountMyPosts);\r",
									"console.log(pm.collectionVariables.get(\"currentCountMyPosts\"));\r",
									"\r",
									"pm.test(\"Check if post is created\", function () {\r",
									"    pm.expect(pm.collectionVariables.get(\"currentCountMyPosts\")).to.eql(pm.collectionVariables.get(\"countMyPosts\")+1)\r",
									"});\r",
									"\r",
									"console.log(pm.collectionVariables.get(\"countMyPosts\")+1)"
								],
								"type": "text/javascript"
							}
						}
					],
					"request": {
						"method": "GET",
						"header": [],
						"url": {
							"raw": "{{baseUrl}}/posts/my?page=0&size=100",
							"host": [
								"{{baseUrl}}"
							],
							"path": [
								"posts",
								"my"
							],
							"query": [
								{
									"key": "page",
									"value": "0"
								},
								{
									"key": "size",
									"value": "100"
								}
							]
						}
					},
					"response": []
				},
				{
					"name": "Edit post (F)",
					"event": [
						{
							"listen": "test",
							"script": {
								"id": "264e8f1c-7940-43b2-ad19-9b7594cc1d0b",
								"exec": [
									"pm.test(\"User can edit own post\", function () {\r",
									"    pm.response.to.have.status(200);\r",
									"});"
								],
								"type": "text/javascript"
							}
						}
					],
					"request": {
						"method": "PUT",
						"header": [],
						"body": {
							"mode": "formdata",
							"formdata": [
								{
									"key": "post",
									"type": "file",
									"src": "post of user 1 updated.json"
								}
							]
						},
						"url": {
							"raw": "{{baseUrl}}/posts/{{idPost}}",
							"host": [
								"{{baseUrl}}"
							],
							"path": [
								"posts",
								"{{idPost}}"
							]
						}
					},
					"response": []
				},
				{
					"name": "Delete post (F)",
					"event": [
						{
							"listen": "test",
							"script": {
								"id": "b0a22199-714b-4a13-a62e-8eaa851b2976",
								"exec": [
									"pm.test(\"User can delete own post\", function () {\r",
									"    pm.response.to.have.status(200);\r",
									"});\r",
									"\r",
									""
								],
								"type": "text/javascript"
							}
						}
					],
					"request": {
						"method": "DELETE",
						"header": [],
						"url": {
							"raw": "{{baseUrl}}/posts/{{idPost}}",
							"host": [
								"{{baseUrl}}"
							],
							"path": [
								"posts",
								"{{idPost}}"
							]
						}
					},
					"response": []
				},
				{
					"name": "Create new post in Cyrillic public",
					"event": [
						{
							"listen": "test",
							"script": {
								"id": "07d299aa-5fcf-4a95-89d9-a500400d2791",
								"exec": [
									"let jsonData = pm.response.json();\r",
									"\r",
									"pm.test(\"Status code is 200\", function () {\r",
									"    pm.response.to.have.status(200);\r",
									"});\r",
									"\r",
									"var postTitle = jsonData.title;\r",
									"pm.collectionVariables.set(\"postTitle\", postTitle);\r",
									"\r",
									"pm.test(\"Check if new post has correct title\", function () {\r",
									"    pm.expect(pm.collectionVariables.get(\"postTitle\")).to.eql(pm.collectionVariables.get(\"title\"));\r",
									"});\r",
									"var postDescription = jsonData.description;\r",
									"pm.collectionVariables.set(\"postDescription\", postDescription);\r",
									"\r",
									"pm.test(\"Check if new post has correct description\", function () {\r",
									"    pm.expect(pm.collectionVariables.get(\"postDescription\")).to.eql(pm.collectionVariables.get(\"description\"));\r",
									"});\r",
									"\r",
									"var idCyrillicPost = jsonData.id;\r",
									"pm.collectionVariables.set(\"idCyrillicPost\", idCyrillicPost);\r",
									"\r",
									"console.log(pm.collectionVariables.get(\"idCyrillicPost\"));\r",
									"\r",
									"\r",
									"\r",
									""
								],
								"type": "text/javascript"
							}
						},
						{
							"listen": "prerequest",
							"script": {
								"id": "9c9dd0d8-dca3-4f3b-903f-a215580cb11a",
								"exec": [
									"var\ttitle = \"Тюрлю гювеч\";\r",
									"pm.collectionVariables.set(\"title\", title);\r",
									"\r",
									"var\tdescription = \"Манджа с грозде\";\r",
									"pm.collectionVariables.set(\"description\", description);"
								],
								"type": "text/javascript"
							}
						}
					],
					"request": {
						"method": "POST",
						"header": [],
						"body": {
							"mode": "formdata",
							"formdata": [
								{
									"key": "post",
									"type": "file",
									"src": "/D:/QA/Final project/POSTMAN/post of user 1 Cyrilic.json"
								}
							]
						},
						"url": {
							"raw": "{{baseUrl}}/posts",
							"host": [
								"{{baseUrl}}"
							],
							"path": [
								"posts"
							]
						}
					},
					"response": []
				},
				{
					"name": "Get post in Cyrillic",
					"event": [
						{
							"listen": "test",
							"script": {
								"id": "bfc90a48-0701-46a6-9d4d-cc6899957bf0",
								"exec": [
									"let jsonData = pm.response.json();\r",
									"\r",
									"var postDescription = jsonData.description;\r",
									"pm.collectionVariables.set(\"postDescription\", postDescription);\r",
									"\r",
									"var postVisibility = jsonData.visibility.id;\r",
									"pm.collectionVariables.set(\"postVisibility\", postVisibility);\r",
									"\r",
									"pm.test(\"Check if new post has correct title\", function () {\r",
									"    pm.expect(pm.collectionVariables.get(\"postDescription\")).to.eql(pm.collectionVariables.get(\"description\"));\r",
									"});\r",
									"pm.test(\"Check if new post has public visibility\", function () {\r",
									"    pm.expect(pm.collectionVariables.get(\"postVisibility\")).to.eql(1);\r",
									"});\r",
									"\r",
									"console.log(pm.collectionVariables.get(\"postDescription\"));\r",
									"console.log(pm.collectionVariables.get(\"description\"));"
								],
								"type": "text/javascript"
							}
						}
					],
					"request": {
						"method": "GET",
						"header": [],
						"url": {
							"raw": "{{baseUrl}}/posts/{{idCyrillicPost}}",
							"host": [
								"{{baseUrl}}"
							],
							"path": [
								"posts",
								"{{idCyrillicPost}}"
							]
						}
					},
					"response": []
				},
				{
					"name": "Logout User1",
					"event": [
						{
							"listen": "test",
							"script": {
								"id": "1232943a-ba61-428d-b541-e64d943835d3",
								"exec": [
									"pm.test(\"Logout status code is 200\", function () {\r",
									"    pm.response.to.have.status(200);\r",
									"});"
								],
								"type": "text/javascript"
							}
						}
					],
					"request": {
						"method": "GET",
						"header": [],
						"url": {
							"raw": "{{logout}}",
							"host": [
								"{{logout}}"
							]
						}
					},
					"response": []
				}
			],
			"protocolProfileBehavior": {}
		},
		{
			"name": "Negative test for create post by User",
			"item": [
				{
					"name": "Authenticate User1 public",
					"event": [
						{
							"listen": "test",
							"script": {
								"id": "c4a8cd48-b5c8-4e1b-bdd4-27a0c919da3c",
								"exec": [
									"pm.collectionVariables.set(\"SessionCookie\", pm.cookies.get(\"JSESSIONID\"));\r",
									"console.log(pm.cookies.get(\"JSESSIONID\"));\r",
									"\r",
									"pm.test(\"Status code is 200\", function () {\r",
									"    pm.response.to.have.status(200);\r",
									"});"
								],
								"type": "text/javascript"
							}
						}
					],
					"protocolProfileBehavior": {
						"disabledSystemHeaders": {}
					},
					"request": {
						"method": "POST",
						"header": [],
						"body": {
							"mode": "urlencoded",
							"urlencoded": [
								{
									"key": "username",
									"value": "{{publicUserName1FrozenAndStage5}}",
									"type": "text"
								},
								{
									"key": "password",
									"value": "{{publicUser1PasswordFrozen&Stage5}}",
									"type": "text"
								}
							]
						},
						"url": {
							"raw": "{{cookieStage5}}",
							"host": [
								"{{cookieStage5}}"
							]
						}
					},
					"response": []
				},
				{
					"name": "Unsuccessfully create of post with empty title",
					"event": [
						{
							"listen": "test",
							"script": {
								"id": "a77e3b12-76f0-4558-91ef-a1497e8192fb",
								"exec": [
									"pm.test(\"Status code is 500\", function () {\r",
									"    pm.response.to.have.status(500);\r",
									"});\r",
									"\r",
									"pm.test(\"Check error message\", function () {\r",
									"pm.expect(pm.response.text()).to.include(\"could not execute statement\")\r",
									"});"
								],
								"type": "text/javascript"
							}
						},
						{
							"listen": "prerequest",
							"script": {
								"id": "692f9c6b-f175-447d-af04-fdcb888ed77b",
								"exec": [
									""
								],
								"type": "text/javascript"
							}
						}
					],
					"request": {
						"method": "POST",
						"header": [],
						"body": {
							"mode": "formdata",
							"formdata": [
								{
									"key": "post",
									"type": "file",
									"src": "/D:/QA/Final project/POSTMAN/post User 1 empty title.json"
								}
							]
						},
						"url": {
							"raw": "{{baseUrl}}/posts",
							"host": [
								"{{baseUrl}}"
							],
							"path": [
								"posts"
							]
						}
					},
					"response": []
				},
				{
					"name": "Unsuccessfully create of post with 1 symbol in title",
					"event": [
						{
							"listen": "test",
							"script": {
								"id": "a653df84-c86d-40d5-bcbb-99617dfc11bf",
								"exec": [
									"pm.test(\"Status code is 500\", function () {\r",
									"    pm.response.to.have.status(500);\r",
									"});\r",
									"\r",
									"pm.test(\"Check error message\", function () {\r",
									"    pm.expect(pm.response.text()).to.include(\"title should be between 2 and 100 characters.\")\r",
									"pm.globals.get(\"variable_key\");\r",
									"});"
								],
								"type": "text/javascript"
							}
						},
						{
							"listen": "prerequest",
							"script": {
								"id": "62ee2cd7-a28b-44af-a3da-bc0edf282d80",
								"exec": [
									""
								],
								"type": "text/javascript"
							}
						}
					],
					"request": {
						"method": "POST",
						"header": [],
						"body": {
							"mode": "formdata",
							"formdata": [
								{
									"key": "post",
									"type": "file",
									"src": "post User 1 with 1 symbol in title.json"
								}
							]
						},
						"url": {
							"raw": "{{baseUrl}}/posts",
							"host": [
								"{{baseUrl}}"
							],
							"path": [
								"posts"
							]
						}
					},
					"response": []
				},
				{
					"name": "Unseccessfully create of post with 101 symbols in title Copy",
					"event": [
						{
							"listen": "test",
							"script": {
								"id": "8a30bbc8-df47-4806-8c6c-29156e871f27",
								"exec": [
									"pm.test(\"Status code is 500\", function () {\r",
									"    pm.response.to.have.status(500);\r",
									"});\r",
									"\r",
									"pm.test(\"Check error message\", function () {\r",
									"pm.expect(pm.response.text()).to.include(\"title should be between 2 and 100 characters.\")\r",
									"});"
								],
								"type": "text/javascript"
							}
						},
						{
							"listen": "prerequest",
							"script": {
								"id": "e724cc22-e57f-4cbc-8d3c-033f922750c6",
								"exec": [
									""
								],
								"type": "text/javascript"
							}
						}
					],
					"request": {
						"method": "POST",
						"header": [],
						"body": {
							"mode": "formdata",
							"formdata": [
								{
									"key": "post",
									"type": "file",
									"src": "post User 1 with 101 symbols in title.json"
								}
							]
						},
						"url": {
							"raw": "{{baseUrl}}/posts",
							"host": [
								"{{baseUrl}}"
							],
							"path": [
								"posts"
							]
						}
					},
					"response": []
				},
				{
					"name": "Logout User1",
					"event": [
						{
							"listen": "test",
							"script": {
								"id": "bef82785-bb2e-4956-a203-8d8117fbdcf4",
								"exec": [
									"pm.test(\"Logout status code is 200\", function () {\r",
									"    pm.response.to.have.status(200);\r",
									"});"
								],
								"type": "text/javascript"
							}
						}
					],
					"request": {
						"method": "GET",
						"header": [],
						"url": {
							"raw": "{{logout}}",
							"host": [
								"{{logout}}"
							]
						}
					},
					"response": []
				}
			],
			"protocolProfileBehavior": {}
		},
		{
			"name": "Comment/Like on post",
			"item": [
				{
					"name": "Authenticate User1 public",
					"event": [
						{
							"listen": "test",
							"script": {
								"id": "91e313ac-2b8a-406b-a1f8-19d966794a0b",
								"exec": [
									"pm.collectionVariables.set(\"SessionCookie\", pm.cookies.get(\"JSESSIONID\"));\r",
									"console.log(pm.cookies.get(\"JSESSIONID\"));\r",
									"\r",
									"pm.test(\"Status code is 200\", function () {\r",
									"    pm.response.to.have.status(200);\r",
									"});"
								],
								"type": "text/javascript"
							}
						}
					],
					"protocolProfileBehavior": {
						"disabledSystemHeaders": {}
					},
					"request": {
						"method": "POST",
						"header": [],
						"body": {
							"mode": "urlencoded",
							"urlencoded": [
								{
									"key": "username",
									"value": "{{publicUserName1FrozenAndStage5}}",
									"type": "text"
								},
								{
									"key": "password",
									"value": "{{publicUser1PasswordFrozen&Stage5}}",
									"type": "text"
								}
							]
						},
						"url": {
							"raw": "{{cookieStage5}}",
							"host": [
								"{{cookieStage5}}"
							]
						}
					},
					"response": []
				},
				{
					"name": "Get list of top posts",
					"event": [
						{
							"listen": "test",
							"script": {
								"id": "59a32046-762c-47d5-b36a-be8f600d0b00",
								"exec": [
									"pm.test(\"Status code is 200\", function () {\r",
									"    pm.response.to.have.status(200);\r",
									"});\r",
									"\r",
									"let jsonData = pm.response.json();\r",
									"\r",
									"var arrayPosts = JSON.parse(responseBody); //response body as array\r",
									"var countPosts = arrayPosts.length; //length of array and number of posts\r",
									"var index = Math.trunc(Math.random() * countPosts); //random index of array of posts\r",
									"var item = jsonData[index]; //random post  object\r",
									"var randomPostID = item.id; // id of post\r",
									"pm.collectionVariables.set(\"randomPostID\", randomPostID);\r",
									"\r",
									"console.log(pm.collectionVariables.get(\"randomPostID\"));\r",
									""
								],
								"type": "text/javascript"
							}
						}
					],
					"request": {
						"method": "GET",
						"header": [],
						"url": {
							"raw": "{{baseUrl}}/posts/top?page=0&size=100",
							"host": [
								"{{baseUrl}}"
							],
							"path": [
								"posts",
								"top"
							],
							"query": [
								{
									"key": "page",
									"value": "0"
								},
								{
									"key": "size",
									"value": "100"
								}
							]
						}
					},
					"response": []
				},
				{
					"name": "Get random post by ID",
					"event": [
						{
							"listen": "test",
							"script": {
								"id": "14290a61-6f34-422a-99e1-b03ec5d80bcb",
								"exec": [
									"pm.test(\"Status code is 200\", function () {\r",
									"    pm.response.to.have.status(200);\r",
									"});\r",
									"\r",
									"let jsonData = pm.response.json();\r",
									"\r",
									"pm.test(\"Verify get post has correct ID\", function () {\r",
									"    pm.expect(jsonData.id).to.eql(pm.collectionVariables.get(\"randomPostID\"));\r",
									"});"
								],
								"type": "text/javascript"
							}
						}
					],
					"request": {
						"method": "GET",
						"header": [],
						"url": {
							"raw": "{{baseUrl}}/posts/{{randomPostID}}",
							"host": [
								"{{baseUrl}}"
							],
							"path": [
								"posts",
								"{{randomPostID}}"
							]
						}
					},
					"response": []
				},
				{
					"name": "Create comment",
					"event": [
						{
							"listen": "test",
							"script": {
								"id": "817a5bcd-be61-4e5d-9028-68a4dc3ca55e",
								"exec": [
									"let jsonData = pm.response.json();\r",
									"\r",
									"pm.test(\"Status code is 200\", function () {\r",
									"    pm.response.to.have.status(200);\r",
									"});\r",
									"var createdCommentID = jsonData.id;\r",
									"pm.collectionVariables.set(\"createdCommentID\", createdCommentID);\r",
									"\r",
									"console.log(pm.collectionVariables.get(\"createdCommentID\"));"
								],
								"type": "text/javascript"
							}
						}
					],
					"request": {
						"method": "POST",
						"header": [],
						"body": {
							"mode": "raw",
							"raw": "{\r\n  \"comment\": \"{{$randomPhrase}}\"\r\n}",
							"options": {
								"raw": {
									"language": "json"
								}
							}
						},
						"url": {
							"raw": "{{baseUrl}}/posts/{{randomPostID}}/comments",
							"host": [
								"{{baseUrl}}"
							],
							"path": [
								"posts",
								"{{randomPostID}}",
								"comments"
							]
						}
					},
					"response": []
				},
				{
					"name": "Edit own comment on post (F)",
					"event": [
						{
							"listen": "test",
							"script": {
								"id": "63991d99-d334-474b-a8c2-f68f26185094",
								"exec": [
									"pm.test(\"Status code is 200\", function () {\r",
									"    pm.response.to.have.status(200);\r",
									"});\r",
									""
								],
								"type": "text/javascript"
							}
						}
					],
					"request": {
						"method": "PUT",
						"header": [],
						"body": {
							"mode": "raw",
							"raw": "{\r\n  \"comment\": \"{{$randomPhrase}}\"\r\n}",
							"options": {
								"raw": {
									"language": "json"
								}
							}
						},
						"url": {
							"raw": "{{baseUrl}}/comments/{{createdCommentID}}",
							"host": [
								"{{baseUrl}}"
							],
							"path": [
								"comments",
								"{{createdCommentID}}"
							]
						}
					},
					"response": []
				},
				{
					"name": "Delete own comment on post (F)",
					"event": [
						{
							"listen": "test",
							"script": {
								"id": "a70f470f-6837-4d07-8fb6-06fda2e9a349",
								"exec": [
									"pm.test(\"Status code is 200\", function () {\r",
									"    pm.response.to.have.status(200);\r",
									"});"
								],
								"type": "text/javascript"
							}
						}
					],
					"request": {
						"method": "DELETE",
						"header": [],
						"url": {
							"raw": "{{baseUrl}}/comments/{{createdCommentID}}",
							"host": [
								"{{baseUrl}}"
							],
							"path": [
								"comments",
								"{{createdCommentID}}"
							]
						}
					},
					"response": []
				},
				{
					"name": "Count of likes of post",
					"event": [
						{
							"listen": "test",
							"script": {
								"id": "5f714ab0-51d8-4278-80cb-d53f3724d17b",
								"exec": [
									"pm.test(\"Status code is 200\", function () {\r",
									"    pm.response.to.have.status(200);\r",
									"});\r",
									"\r",
									"let jsonData = pm.response.json();\r",
									"var countLikes = JSON.parse(responseBody);\r",
									"\r",
									"pm.collectionVariables.set(\"countLikes\", countLikes);\r",
									"console.log(pm.collectionVariables.get(\"countLikes\"));"
								],
								"type": "text/javascript"
							}
						}
					],
					"request": {
						"method": "GET",
						"header": [],
						"url": {
							"raw": "{{baseUrl}}/posts/{{randomPostID}}/likes",
							"host": [
								"{{baseUrl}}"
							],
							"path": [
								"posts",
								"{{randomPostID}}",
								"likes"
							]
						}
					},
					"response": []
				},
				{
					"name": "Like a post",
					"event": [
						{
							"listen": "test",
							"script": {
								"id": "3d28702e-8424-4d56-a350-70acf4f935a3",
								"exec": [
									"let jsonData = pm.response.json();\r",
									"var countLikes2 = JSON.parse(responseBody);\r",
									"\r",
									"pm.collectionVariables.set(\"countLikes2\", countLikes2);\r",
									"\r",
									"pm.test(\"Check if likes are increased\", function () {\r",
									"    pm.expect(pm.collectionVariables.get(\"countLikes2\")).to.eql(pm.collectionVariables.get(\"countLikes\")+1);\r",
									"});\r",
									"pm.test(\"Status code is 200\", function () {\r",
									"    pm.response.to.have.status(200);\r",
									"});\r",
									"console.log(pm.collectionVariables.get(\"countLikes\"))\r",
									"console.log(pm.collectionVariables.get(\"countLikes2\"))"
								],
								"type": "text/javascript"
							}
						}
					],
					"request": {
						"method": "POST",
						"header": [],
						"url": {
							"raw": "{{baseUrl}}/posts/{{randomPostID}}/likes",
							"host": [
								"{{baseUrl}}"
							],
							"path": [
								"posts",
								"{{randomPostID}}",
								"likes"
							]
						}
					},
					"response": []
				},
				{
					"name": "Unlike a post",
					"event": [
						{
							"listen": "test",
							"script": {
								"id": "e58421c3-1eac-48b0-9165-9f0420f73a83",
								"exec": [
									"let jsonData = pm.response.json();\r",
									"var countLikes3 = JSON.parse(responseBody);\r",
									"\r",
									"pm.collectionVariables.set(\"countLikes3\", countLikes3);\r",
									"\r",
									"pm.test(\"Check if likes are decreased\", function () {\r",
									"    pm.expect(pm.collectionVariables.get(\"countLikes2\")-1).to.eql(pm.collectionVariables.get(\"countLikes3\"));\r",
									"});\r",
									"pm.test(\"Status code is 200\", function () {\r",
									"    pm.response.to.have.status(200);\r",
									"});\r",
									"console.log(pm.collectionVariables.get(\"countLikes2\"))\r",
									"console.log(pm.collectionVariables.get(\"countLikes3\"))"
								],
								"type": "text/javascript"
							}
						}
					],
					"request": {
						"method": "POST",
						"header": [],
						"url": {
							"raw": "{{baseUrl}}/posts/{{randomPostID}}/likes",
							"host": [
								"{{baseUrl}}"
							],
							"path": [
								"posts",
								"{{randomPostID}}",
								"likes"
							]
						}
					},
					"response": []
				},
				{
					"name": "Unsuccessfully deleted user's post",
					"event": [
						{
							"listen": "test",
							"script": {
								"id": "b7e10e8c-f64e-4e19-bedd-4f5a4b512e90",
								"exec": [
									"pm.test(\"Status code is 401\", function () {\r",
									"    pm.response.to.have.status(401);\r",
									"});\r",
									"\r",
									"pm.test(\"Verify correct error message\", function () {\r",
									"    pm.expect(pm.response.text()).to.include(\"Cannot modify post with Id \" + pm.collectionVariables.get(\"randomPostID\"));\r",
									"});"
								],
								"type": "text/javascript"
							}
						}
					],
					"request": {
						"method": "DELETE",
						"header": [],
						"url": {
							"raw": "{{baseUrl}}/posts/{{randomPostID}}",
							"host": [
								"{{baseUrl}}"
							],
							"path": [
								"posts",
								"{{randomPostID}}"
							]
						},
						"description": "Negative"
					},
					"response": []
				},
				{
					"name": "Unsuccessfully edited user's post",
					"event": [
						{
							"listen": "test",
							"script": {
								"id": "e0099326-a8f9-4fc7-a8d7-81dd69f3d3f6",
								"exec": [
									"pm.test(\"Status code is 401\", function () {\r",
									"    pm.response.to.have.status(401);\r",
									"});\r",
									"pm.test(\"Verify correct error message\", function () {\r",
									"    pm.expect(pm.response.text()).to.include(\"Cannot modify post with Id \" + pm.collectionVariables.get(\"randomPostID\"));\r",
									"});"
								],
								"type": "text/javascript"
							}
						}
					],
					"request": {
						"method": "PUT",
						"header": [],
						"body": {
							"mode": "formdata",
							"formdata": [
								{
									"key": "post",
									"type": "file",
									"src": "post of user 1 updated.json"
								}
							]
						},
						"url": {
							"raw": "{{baseUrl}}/posts/{{randomPostID}}",
							"host": [
								"{{baseUrl}}"
							],
							"path": [
								"posts",
								"{{randomPostID}}"
							]
						}
					},
					"response": []
				},
				{
					"name": "Logout User1",
					"event": [
						{
							"listen": "test",
							"script": {
								"id": "ecb85783-4c15-4ca1-9cbe-d65d80aff0bb",
								"exec": [
									"pm.test(\"Logout status code is 200\", function () {\r",
									"    pm.response.to.have.status(200);\r",
									"});"
								],
								"type": "text/javascript"
							}
						}
					],
					"request": {
						"method": "GET",
						"header": [],
						"url": {
							"raw": "{{logout}}",
							"host": [
								"{{logout}}"
							]
						}
					},
					"response": []
				}
			],
			"protocolProfileBehavior": {}
		},
		{
			"name": "Post functionality as Admin",
			"item": [
				{
					"name": "Authentificate Admin Stage 5",
					"event": [
						{
							"listen": "test",
							"script": {
								"id": "e8813416-d14f-4076-a444-9f341b5a50bc",
								"exec": [
									"pm.collectionVariables.set(\"SessionCookie\", pm.cookies.get(\"JSESSIONID\"));\r",
									"console.log(pm.cookies.get(\"JSESSIONID\"));\r",
									"\r",
									"pm.test(\"Status code is 200\", function () {\r",
									"    pm.response.to.have.status(200);\r",
									"});"
								],
								"type": "text/javascript"
							}
						}
					],
					"request": {
						"method": "POST",
						"header": [],
						"body": {
							"mode": "urlencoded",
							"urlencoded": [
								{
									"key": "username",
									"value": "{{AdminNameStage5}}",
									"type": "text"
								},
								{
									"key": "password",
									"value": "{{AdminPassStage5}}",
									"type": "text"
								}
							]
						},
						"url": {
							"raw": "{{cookieStage5}}",
							"host": [
								"{{cookieStage5}}"
							]
						}
					},
					"response": []
				},
				{
					"name": "Edit user's post in Cyrillic",
					"event": [
						{
							"listen": "test",
							"script": {
								"id": "3d87e2e1-19ea-4cf4-9481-482616552870",
								"exec": [
									"pm.test(\"Request has status code 200\", function () {\r",
									"    pm.response.to.have.status(200);\r",
									"});\r",
									"\r",
									"pm.test(\"Verify that description is updated\", function () {\r",
									"pm.expect(pm.response.text()).to.include(pm.variables.get(\"newDescription\"))\r",
									"});\r",
									"\r",
									"pm.test(\"Verify that visibility is change to private\", function () {\r",
									"    var jsonData = pm.response.json();\r",
									"    pm.expect(jsonData.visibility.id).to.eql(2);\r",
									"});"
								],
								"type": "text/javascript"
							}
						},
						{
							"listen": "prerequest",
							"script": {
								"id": "4609f313-94e6-450e-8baa-7799720c7e05",
								"exec": [
									"var newDescription = \"Манджа с грозде по италиански\";\r",
									"pm.variables.set(\"newDescription\", newDescription);"
								],
								"type": "text/javascript"
							}
						}
					],
					"request": {
						"method": "PUT",
						"header": [],
						"body": {
							"mode": "formdata",
							"formdata": [
								{
									"key": "post",
									"type": "file",
									"src": "post of user 1 Cyrilic updated description.json"
								}
							]
						},
						"url": {
							"raw": "{{baseUrl}}/posts/{{idCyrillicPost}}",
							"host": [
								"{{baseUrl}}"
							],
							"path": [
								"posts",
								"{{idCyrillicPost}}"
							]
						},
						"description": "Admin changes user's post visibility to private and description of post."
					},
					"response": []
				},
				{
					"name": "Delete user's comment",
					"event": [
						{
							"listen": "test",
							"script": {
								"id": "800032b5-f64a-4107-ab1f-c6a9a64839fa",
								"exec": [
									"pm.test(\"Status code is 200\", function () {\r",
									"    pm.response.to.have.status(200);\r",
									"});\r",
									""
								],
								"type": "text/javascript"
							}
						}
					],
					"request": {
						"method": "DELETE",
						"header": [],
						"url": {
							"raw": "{{baseUrl}}/comments/{{createdCommentID}}",
							"host": [
								"{{baseUrl}}"
							],
							"path": [
								"comments",
								"{{createdCommentID}}"
							]
						}
					},
					"response": []
				},
				{
					"name": "Successfully deleted comment",
					"event": [
						{
							"listen": "test",
							"script": {
								"id": "6d2ce7f8-5907-4331-80a9-5ff8a272dffc",
								"exec": [
									"pm.test(\"Verify that comment is deleted, status code is 404\", function () {\r",
									"    pm.response.to.have.status(404);\r",
									"});\r",
									"\r",
									"pm.test(\"Check error message comment is not found\", function () {\r",
									"    pm.expect(pm.response.text()).to.include(\"Comment with id \" + pm.collectionVariables.get(\"createdCommentID\") + \" not found\")\r",
									"});"
								],
								"type": "text/javascript"
							}
						}
					],
					"request": {
						"method": "GET",
						"header": [],
						"url": {
							"raw": "{{baseUrl}}/comments/{{createdCommentID}}",
							"host": [
								"{{baseUrl}}"
							],
							"path": [
								"comments",
								"{{createdCommentID}}"
							]
						}
					},
					"response": []
				},
				{
					"name": "Delete user's post",
					"event": [
						{
							"listen": "test",
							"script": {
								"id": "017ab992-7ca7-4573-b820-789b14fa3334",
								"exec": [
									"pm.test(\"Status code is 200\", function () {\r",
									"    pm.response.to.have.status(200);\r",
									"});"
								],
								"type": "text/javascript"
							}
						}
					],
					"request": {
						"method": "DELETE",
						"header": [],
						"url": {
							"raw": "{{baseUrl}}/posts/{{idPost}}",
							"host": [
								"{{baseUrl}}"
							],
							"path": [
								"posts",
								"{{idPost}}"
							]
						}
					},
					"response": []
				},
				{
					"name": "Successfully deleted post",
					"event": [
						{
							"listen": "test",
							"script": {
								"id": "c31a6ca6-f245-49eb-84d7-fb6f1473d2fd",
								"exec": [
									"pm.test(\"Verify that post is deleted, status code is 404\", function () {\r",
									"    pm.response.to.have.status(404);\r",
									"});\r",
									"\r",
									"pm.test(\"Check error message post is not found\", function () {\r",
									"    pm.expect(pm.response.text()).to.include(\"Post with id \" + pm.collectionVariables.get(\"idPost\") + \" not found\")\r",
									"});"
								],
								"type": "text/javascript"
							}
						}
					],
					"request": {
						"method": "GET",
						"header": [],
						"url": {
							"raw": "{{baseUrl}}/posts/{{idPost}}",
							"host": [
								"{{baseUrl}}"
							],
							"path": [
								"posts",
								"{{idPost}}"
							]
						}
					},
					"response": []
				},
				{
					"name": "Delete user's post in Cyrillic",
					"event": [
						{
							"listen": "test",
							"script": {
								"id": "6f80cc91-b4a3-4203-91f8-836d43c3ee13",
								"exec": [
									"pm.test(\"Status code is 200\", function () {\r",
									"    pm.response.to.have.status(200);\r",
									"});\r",
									""
								],
								"type": "text/javascript"
							}
						}
					],
					"request": {
						"method": "DELETE",
						"header": [],
						"url": {
							"raw": "{{baseUrl}}/posts/{{idCyrillicPost}}",
							"host": [
								"{{baseUrl}}"
							],
							"path": [
								"posts",
								"{{idCyrillicPost}}"
							]
						}
					},
					"response": []
				},
				{
					"name": "Successfully deleted post in Cyrillic",
					"event": [
						{
							"listen": "test",
							"script": {
								"id": "d48dd198-ad49-456a-98aa-638286bb5b26",
								"exec": [
									"pm.test(\"Verify that post is deleted, status code is 404\", function () {\r",
									"    pm.response.to.have.status(404);\r",
									"});\r",
									"\r",
									"pm.test(\"Check error message post is not found\", function () {\r",
									"    pm.expect(pm.response.text()).to.include(\"Post with id \" + pm.collectionVariables.get(\"idCyrillicPost\") + \" not found\")\r",
									"});"
								],
								"type": "text/javascript"
							}
						}
					],
					"request": {
						"method": "GET",
						"header": [],
						"url": {
							"raw": "{{baseUrl}}/posts/{{idCyrillicPost}}",
							"host": [
								"{{baseUrl}}"
							],
							"path": [
								"posts",
								"{{idCyrillicPost}}"
							]
						}
					},
					"response": []
				},
				{
					"name": "Logout Admin",
					"event": [
						{
							"listen": "test",
							"script": {
								"id": "3ede3311-c22f-4c90-9187-47af943aa1d4",
								"exec": [
									"pm.test(\"Logout status code is 200\", function () {\r",
									"    pm.response.to.have.status(200);\r",
									"});"
								],
								"type": "text/javascript"
							}
						}
					],
					"request": {
						"method": "GET",
						"header": [],
						"url": {
							"raw": "{{logout}}",
							"host": [
								"{{logout}}"
							]
						}
					},
					"response": []
				}
			],
			"description": "Test on admin function to change and delete use's post",
			"protocolProfileBehavior": {}
		}
	],
	"variable": [
		{
			"id": "67d0ccad-966c-47e5-8ef9-591552068b05",
			"key": "SessionCookie",
			"value": ""
		},
		{
			"id": "fc93525d-a504-46b0-b9f3-7a162dfb6773",
			"key": "title",
			"value": ""
		},
		{
			"id": "cf2b8be9-6a74-474f-88c5-26fbc3515b3c",
			"key": "postTitle",
			"value": ""
		},
		{
			"id": "a4fa9de2-1a09-44ca-8fcb-3cb8d3f8dce2",
			"key": "currentCountMyPosts",
			"value": ""
		},
		{
			"id": "954462f7-dcf8-48dd-ae5c-3f9f33de9497",
			"key": "countMyPosts",
			"value": ""
		},
		{
			"id": "a14758aa-bb16-4e44-8882-87390d7e824f",
			"key": "idPost",
			"value": ""
		},
		{
			"id": "5c3b2ea5-f8af-4e41-aead-da72fd5848d1",
			"key": "description",
			"value": ""
		},
		{
			"id": "a352282f-0ee5-4813-9d53-ab57d9b59e60",
			"key": "postDescription",
			"value": ""
		},
		{
			"id": "7d93d36b-f05d-4689-be8c-9181ceb6051d",
			"key": "idCyrillicPost",
			"value": ""
		},
		{
			"id": "8cf517d1-f121-4769-b2f4-3d52760e7071",
			"key": "postVisibility",
			"value": ""
		},
		{
			"id": "549b19f2-5563-4880-90bb-f34917af066a",
			"key": "randomPostID",
			"value": ""
		},
		{
			"id": "30e0d870-74e8-46a1-98c5-000d0d16c17d",
			"key": "countLikes",
			"value": ""
		},
		{
			"id": "ba03c3ec-e919-4fa0-820a-2e193434f60d",
			"key": "countLikes2",
			"value": ""
		},
		{
			"id": "8e41a9b5-81c0-4dea-ba08-d3b4eefacaf7",
			"key": "countLikes3",
			"value": ""
		},
		{
			"id": "1411956f-642d-4acc-b0eb-91852da033a8",
			"key": "createdCommentID",
			"value": ""
		}
	],
	"protocolProfileBehavior": {}
}